{
  "_comment": "Build with `packer build ol-core.json`",
  "builders": [
    {
      "boot_command": [
        "<tab> text ks=http://{{ .HTTPIP }}:{{ .HTTPPort}}/{{ user `kickstart` }}<enter>"
      ],
      "disk_size": "{{ user `disk_size` }}",
      "guest_additions_path": "VBoxGuestAdditions_{{.Version}}.iso",
      "guest_os_type": "{{ user `virtualbox_guest_os_type` }}",
      "hard_drive_interface": "sata",
      "headless": "{{ user `headless` }}",
      "http_directory": "http",
      "iso_checksum": "{{ user `iso_checksum` }}",
      "iso_checksum_type": "{{ user `iso_checksum_type` }}",
      "iso_urls": [
        "{{ user `iso_path` }}/{{ user `iso_name` }}",
        "{{ user `iso_url` }}"
      ],
      "output_directory": "output-{{ user `vm_name` }}-virtualbox-iso",
      "shutdown_command": "{{ user `shutdown_command` }}",
      "ssh_password": "{{ user `ssh_password` }}",
      "ssh_username": "{{ user `ssh_username` }}",
      "ssh_wait_timeout": "10000s",
      "type": "virtualbox-iso",
      "vboxmanage": [
        [
          "modifyvm", "{{.Name}}", "--memory", "{{ user `memory` }}"
        ],
        [
          "modifyvm", "{{.Name}}", "--cpus", "{{ user `cpus` }}"
        ]
      ],
      "virtualbox_version_file": ".vbox_version",
      "vm_name": "{{ user `vm_name` }}"
    }
  ],
  "post-processors": [
    {
      "keep_input_artifact": false,
      "output": "box/{{.Provider}}/{{user `vm_name`}}-{{user `version`}}.box",
      "type": "vagrant",
      "vagrantfile_template": "{{ user `vagrantfile_template` }}"
    }
  ],
  "provisioners": [
    {
      "type": "file",
      "source": "./packages",
      "destination": "/tmp/."
    },
    {
      "environment_vars": [
        "DESKTOP={{user `desktop`}}",
        "UPDATE={{user `update`}}",
        "INSTALL_VAGRANT_KEY={{user `install_vagrant_key`}}",
        "SSH_USERNAME={{user `ssh_username`}}",
        "SSH_PASSWORD={{user `ssh_password`}}",
        "http_proxy={{user `http_proxy`}}",
        "https_proxy={{user `https_proxy`}}",
        "ftp_proxy={{user `ftp_proxy`}}",
        "rsync_proxy={{user `rsync_proxy`}}",
        "no_proxy={{user `no_proxy`}}"
      ],
      "execute_command": "echo 'vagrant' | {{.Vars}} sudo -E -S bash '{{.Path}}'",
      "scripts": [
        "scripts/openssl.sh",
        "scripts/curl.sh",
        "scripts/proxy.sh",
        "scripts/base.sh",
        "scripts/fix-slow-dns.sh",
        "scripts/python-27-installer.sh",
        "scripts/ansible.sh",
        "scripts/virtualbox.sh",
        "scripts/zerodisk.sh",
        "scripts/cleanup.sh"
      ],
      "type": "shell",
      "expect_disconnect": "true"
    }
  ],
  "variables": {
    "cpus": "1",
    "cutom_script": ".",
    "desktop": "false",
    "disk_size": "65536",
    "docker": "false",
    "ftp_proxy": "{{env `ftp_proxy`}}",
    "headless": "",
    "http_proxy": "{{env `http_proxy`}}",
    "https_proxy": "{{env `https_proxy`}}",
    "install_vagrant_key": "true",
    "iso_checksum": "8af2121088c7e6f5ebdb6d5900403240",
    "iso_checksum_type": "md5",
    "iso_name": "Enterprise-R5-U11-Server-x86_64-dvd.iso",
    "iso_path": "/Users/hiran.patel/Downloads/",
    "iso_url": "http://mirrors.dotsrc.org/oracle-linux/EL5/U11/x86_64/Enterprise-R5-U11-Server-x86_64-dvd.iso",
    "kickstart": "ks5.cfg",
    "memory": "512",
    "no_proxy": "{{env `no_proxy`}}",
    "rsync_proxy": "{{env `rsync_proxy`}}",
    "shutdown_command": "echo 'vagrant'|sudo -S shutdown -P now",
    "ssh_password": "vagrant",
    "ssh_username": "vagrant",
    "update": "false",
    "vagrantfile_template": "",
    "version": "0.1.0",
    "virtualbox_guest_os_type": "Oracle_64",
    "vm_name": "oel511",
    "vmware_guest_os_type": "oraclelinux-64"
  }
}
